NHANES case study • table.glue
…
is currently using medication to lower their BP

does not have missing data for SBP or DBP

nhanes_analysis <- nhanes %>% 
  filter(exam_status == 'interview and exam', 
         age >= 20, 
         pregnant == 'no' | is.na(pregnant),
         meds_bp == 'yes') %>% 
  select(exam, sex, race_ethnicity, bp_sys_mmhg, bp_dia_mmhg) %>% 
  na.omit()

nhanes_analysis
#> # A tibble: 4,412 x 5
#>    exam           sex    race_ethnicity bp_sys_mmhg bp_dia_mmhg
#>    <chr>          <chr>  <chr>                <dbl>       <dbl>
#>  1 exam_2013_2014 male   white                 142         82  
#>  2 exam_2013_2014 female white                 137.        86.7
#>  3 exam_2013_2014 male   hispanic              157.        82  
#>  4 exam_2013_2014 male   white                 127.        66.7
#>  5 exam_2013_2014 female black                 127.        74  
#>  6 exam_2013_2014 female other                 141.        57.3
#>  7 exam_2013_2014 female black                 160         71.3
#>  8 exam_2013_2014 male   white                 109.        53.3
#>  9 exam_2013_2014 female white                 140         82.7
#> 10 exam_2013_2014 female other                 140         50  
#> # ... with 4,402 more rows
…
nhanes_bp_summary <- nhanes_analysis %>% 
  group_by(exam, sex, race_ethnicity) %>% 
  summarize(
    across(
      .cols = c(bp_sys_mmhg, bp_dia_mmhg),
      .fns = list(
        mean = ~ mean(.x),
        sd = ~ sd(.x)
      )
    )
  )
#> `summarise()` regrouping output by 'exam', 'sex' (override with `.groups` argument)

nhanes_bp_summary
#> # A tibble: 30 x 7
#> # Groups:   exam, sex [6]
#>    exam  sex   race_ethnicity bp_sys_mmhg_mean bp_sys_mmhg_sd bp_dia_mmhg_mean
#>    <chr> <chr> <chr>                     <dbl>          <dbl>            <dbl>
#>  1 exam~ fema~ asian                      134.           16.1             73.1
#>  2 exam~ fema~ black                      137.           19.8             70.1
#>  3 exam~ fema~ hispanic                   134.           23.1             69.9
#>  4 exam~ fema~ other                      133.           21.2             70.7
#>  5 exam~ fema~ white                      131.           19.5             67.1
#>  6 exam~ male  asian                      134.           14.7             73.2
#>  7 exam~ male  black                      133.           19.0             72.6
#>  8 exam~ male  hispanic                   133            17.2             71.7
#>  9 exam~ male  other                      132.           15.9             72.6
#> 10 exam~ male  white                      129.           20.2             69.6
#> # ... with 20 more rows, and 1 more variable: bp_dia_mmhg_sd <dbl>
…
