NHANES blood pressure data — nhanes • table.glue
…
    References

National health and nutrition examination survey homepage,
available at https://www.cdc.gov/nchs/nhanes/index.htm.
Accessed on 09/07/2020.

    Examples

nhanes

#> # A tibble: 29,400 x 17
#>    exam   seqn   psu strata wts_mec_2yr exam_status   age sex   race_ethnicity
#>    <chr> <dbl> <dbl>  <dbl>       <dbl> <chr>       <dbl> <chr> <chr>         
#>  1 exam~ 73557     1    112      13481. interview ~    69 male  black         
#>  2 exam~ 73558     1    108      24472. interview ~    54 male  white         
#>  3 exam~ 73559     1    109      57193. interview ~    72 male  white         
#>  4 exam~ 73560     2    109      55767. interview ~     9 male  white         
#>  5 exam~ 73561     2    116      65542. interview ~    73 fema~ white         
#>  6 exam~ 73562     1    111      25345. interview ~    56 male  hispanic      
#>  7 exam~ 73563     1    105      17914. interview ~     0 male  white         
#>  8 exam~ 73564     1    114      61759. interview ~    61 fema~ white         
#>  9 exam~ 73565     2    106          0  interview ~    42 male  other         
#> 10 exam~ 73566     1    112      17480. interview ~    56 fema~ white         
#> # ... with 29,390 more rows, and 8 more variables: education <fct>,
#> #   pregnant <chr>, bp_sys_mmhg <dbl>, bp_dia_mmhg <dbl>, n_msr_sbp <int>,
#> #   n_msr_dbp <int>, bp_high_aware <chr>, meds_bp <chr>
…
